EESchema Schematic File Version 4
EELAYER 30 0
EELAYER END
$Descr A4 11693 8268
encoding utf-8
Sheet 1 1
Title "Mascot 719"
Date ""
Rev ""
Comp ""
Comment1 ""
Comment2 ""
Comment3 ""
Comment4 ""
$EndDescr
$Comp
L Device:Transformer_1P_SS TR1
U 1 1 605B6CD7
P 1600 1700
F 0 "TR1" H 1600 2081 50  0000 C CNN
F 1 "mains transformer" H 1600 1990 50  0000 C CNN
F 2 "" H 1600 1700 50  0001 C CNN
F 3 "~" H 1600 1700 50  0001 C CNN
	1    1600 1700
	1    0    0    -1  
$EndComp
$Comp
L Connector:Conn_01x02_Female J1
U 1 1 605B902D
P 700 1750
F 0 "J1" H 592 1425 50  0000 C CNN
F 1 "mains" H 592 1516 50  0000 C CNN
F 2 "" H 700 1750 50  0001 C CNN
F 3 "~" H 700 1750 50  0001 C CNN
	1    700  1750
	-1   0    0    1   
$EndComp
Wire Wire Line
	900  1650 950  1650
Wire Wire Line
	950  1650 950  1500
Wire Wire Line
	950  1500 1200 1500
Wire Wire Line
	900  1750 950  1750
Wire Wire Line
	950  1750 950  1900
Wire Wire Line
	950  1900 1200 1900
Wire Wire Line
	2000 1500 2300 1500
Wire Wire Line
	2000 1700 2300 1700
Wire Wire Line
	2000 1900 2300 1900
$Comp
L Connector:TestPoint TP10
U 1 1 605BA4BE
P 2300 1500
F 0 "TP10" H 2358 1618 50  0000 L CNN
F 1 "-" H 2358 1527 50  0000 L CNN
F 2 "" H 2500 1500 50  0001 C CNN
F 3 "~" H 2500 1500 50  0001 C CNN
	1    2300 1500
	1    0    0    -1  
$EndComp
Connection ~ 2300 1500
$Comp
L Connector:TestPoint TP9
U 1 1 605BACF3
P 2300 1700
F 0 "TP9" H 2358 1818 50  0000 L CNN
F 1 "-" H 2358 1727 50  0000 L CNN
F 2 "" H 2500 1700 50  0001 C CNN
F 3 "~" H 2500 1700 50  0001 C CNN
	1    2300 1700
	1    0    0    -1  
$EndComp
Connection ~ 2300 1700
$Comp
L Connector:TestPoint TP8
U 1 1 605BAE82
P 2300 1900
F 0 "TP8" H 2358 2018 50  0000 L CNN
F 1 "-" H 2358 1927 50  0000 L CNN
F 2 "" H 2500 1900 50  0001 C CNN
F 3 "~" H 2500 1900 50  0001 C CNN
	1    2300 1900
	1    0    0    -1  
$EndComp
Connection ~ 2300 1900
$Comp
L Device:Fuse F1
U 1 1 605BB803
P 2800 1900
F 0 "F1" V 2603 1900 50  0000 C CNN
F 1 "4A" V 2694 1900 50  0000 C CNN
F 2 "" V 2730 1900 50  0001 C CNN
F 3 "~" H 2800 1900 50  0001 C CNN
	1    2800 1900
	0    1    1    0   
$EndComp
Wire Wire Line
	2300 1900 2650 1900
Text Label 2050 1700 0    50   ~ 0
23VAC
Text Label 2050 1500 0    50   ~ 0
38VAC
$Comp
L Device:D D1
U 1 1 605BCDB7
P 4450 1750
F 0 "D1" V 4404 1830 50  0000 L CNN
F 1 "1N5406" V 4495 1830 50  0000 L CNN
F 2 "" H 4450 1750 50  0001 C CNN
F 3 "~" H 4450 1750 50  0001 C CNN
	1    4450 1750
	0    1    1    0   
$EndComp
$Comp
L Device:D D2
U 1 1 605BD273
P 4450 1150
F 0 "D2" V 4404 1230 50  0000 L CNN
F 1 "1N5406" V 4495 1230 50  0000 L CNN
F 2 "" H 4450 1150 50  0001 C CNN
F 3 "~" H 4450 1150 50  0001 C CNN
	1    4450 1150
	0    1    1    0   
$EndComp
Wire Wire Line
	4450 1300 4450 1550
$Comp
L Device:D D3
U 1 1 605BD92A
P 5100 1750
F 0 "D3" V 5054 1830 50  0000 L CNN
F 1 "1N5406" V 5145 1830 50  0000 L CNN
F 2 "" H 5100 1750 50  0001 C CNN
F 3 "~" H 5100 1750 50  0001 C CNN
	1    5100 1750
	0    1    1    0   
$EndComp
$Comp
L Device:D D4
U 1 1 605BDD11
P 5100 1150
F 0 "D4" V 5054 1230 50  0000 L CNN
F 1 "1N5406" V 5145 1230 50  0000 L CNN
F 2 "" H 5100 1150 50  0001 C CNN
F 3 "~" H 5100 1150 50  0001 C CNN
	1    5100 1150
	0    1    1    0   
$EndComp
Wire Wire Line
	5100 1300 5100 1350
$Comp
L Device:CP C2
U 1 1 605BE4DA
P 5800 1400
F 0 "C2" H 5918 1446 50  0000 L CNN
F 1 "2200 uF" H 5918 1355 50  0000 L CNN
F 2 "" H 5838 1250 50  0001 C CNN
F 3 "~" H 5800 1400 50  0001 C CNN
	1    5800 1400
	1    0    0    -1  
$EndComp
Wire Wire Line
	4450 1900 4450 1950
Wire Wire Line
	4450 1950 5100 1950
Wire Wire Line
	5800 1950 5800 1550
Wire Wire Line
	5100 1900 5100 1950
Connection ~ 5100 1950
Wire Wire Line
	5100 1950 5600 1950
Wire Wire Line
	2950 1900 3050 1900
Wire Wire Line
	3050 1900 3050 1550
Connection ~ 4450 1550
Wire Wire Line
	4450 1550 4450 1600
Text Label 5200 850  0    50   ~ 0
+V_rect
$Comp
L Switch:SW_DPDT_x2 SW1
U 1 1 605C1DA7
P 2700 1100
F 0 "SW1" V 2654 1248 50  0000 L CNN
F 1 "30V/15V" V 2745 1248 50  0000 L CNN
F 2 "" H 2700 1100 50  0001 C CNN
F 3 "~" H 2700 1100 50  0001 C CNN
	1    2700 1100
	0    1    1    0   
$EndComp
$Comp
L Switch:SW_DPDT_x2 SW1
U 2 1 605C2FF2
P 3300 7250
F 0 "SW1" V 3346 7062 50  0000 R CNN
F 1 "30V/15V" V 3255 7062 50  0000 R CNN
F 2 "" H 3300 7250 50  0001 C CNN
F 3 "~" H 3300 7250 50  0001 C CNN
	2    3300 7250
	0    -1   -1   0   
$EndComp
Wire Wire Line
	2600 1500 2600 1300
Wire Wire Line
	2300 1500 2600 1500
Wire Wire Line
	2700 1700 2700 1400
Wire Wire Line
	2700 1400 2800 1400
Wire Wire Line
	2800 1400 2800 1300
Wire Wire Line
	2300 1700 2700 1700
Wire Wire Line
	3050 1550 4450 1550
$Comp
L Switch:SW_DPDT_x2 SW2
U 1 1 605C9A49
P 3400 1100
F 0 "SW2" V 3354 1248 50  0000 L CNN
F 1 "Off/On" V 3445 1248 50  0000 L CNN
F 2 "" H 3400 1100 50  0001 C CNN
F 3 "~" H 3400 1100 50  0001 C CNN
	1    3400 1100
	0    1    1    0   
$EndComp
Wire Wire Line
	2700 900  2700 800 
Wire Wire Line
	2700 800  3400 800 
Wire Wire Line
	3400 800  3400 900 
Wire Wire Line
	3500 1300 3500 1350
Wire Wire Line
	4450 1000 4450 850 
Wire Wire Line
	4450 850  5100 850 
Wire Wire Line
	5800 850  5800 1250
Wire Wire Line
	5100 1000 5100 850 
Connection ~ 5100 850 
Wire Wire Line
	5100 850  5800 850 
Wire Wire Line
	5100 1350 3500 1350
Connection ~ 5100 1350
Wire Wire Line
	5100 1350 5100 1550
$Comp
L Device:C C1
U 1 1 605CE14C
P 4800 1550
F 0 "C1" V 5052 1550 50  0000 C CNN
F 1 "1 uF" V 4961 1550 50  0000 C CNN
F 2 "" H 4838 1400 50  0001 C CNN
F 3 "~" H 4800 1550 50  0001 C CNN
	1    4800 1550
	0    -1   -1   0   
$EndComp
Wire Wire Line
	4950 1550 5100 1550
Connection ~ 5100 1550
Wire Wire Line
	5100 1550 5100 1600
Wire Wire Line
	4650 1550 4450 1550
$Comp
L Device:R R2
U 1 1 605D0329
P 6500 850
F 0 "R2" V 6293 850 50  0000 C CNN
F 1 "2k2" V 6384 850 50  0000 C CNN
F 2 "" V 6430 850 50  0001 C CNN
F 3 "~" H 6500 850 50  0001 C CNN
	1    6500 850 
	0    1    1    0   
$EndComp
Wire Wire Line
	5800 850  6250 850 
Connection ~ 5800 850 
$Comp
L Device:R R3
U 1 1 605D11EA
P 6500 1150
F 0 "R3" V 6293 1150 50  0000 C CNN
F 1 "2k2" V 6384 1150 50  0000 C CNN
F 2 "" V 6430 1150 50  0001 C CNN
F 3 "~" H 6500 1150 50  0001 C CNN
	1    6500 1150
	0    1    1    0   
$EndComp
Wire Wire Line
	6350 1150 6250 1150
Wire Wire Line
	6250 1150 6250 850 
Connection ~ 6250 850 
Wire Wire Line
	6250 850  6350 850 
$Comp
L Device:D_Zener D5
U 1 1 605D2513
P 6900 1200
F 0 "D5" V 6854 1280 50  0000 L CNN
F 1 "15V" V 6945 1280 50  0000 L CNN
F 2 "" H 6900 1200 50  0001 C CNN
F 3 "~" H 6900 1200 50  0001 C CNN
	1    6900 1200
	0    1    1    0   
$EndComp
$Comp
L power:GND #PWR?
U 1 1 605D3EF4
P 5600 1950
F 0 "#PWR?" H 5600 1700 50  0001 C CNN
F 1 "GND" H 5605 1777 50  0000 C CNN
F 2 "" H 5600 1950 50  0001 C CNN
F 3 "" H 5600 1950 50  0001 C CNN
	1    5600 1950
	1    0    0    -1  
$EndComp
Connection ~ 5600 1950
Wire Wire Line
	5600 1950 5800 1950
$Comp
L power:GND #PWR?
U 1 1 605D4934
P 6900 1750
F 0 "#PWR?" H 6900 1500 50  0001 C CNN
F 1 "GND" H 6905 1577 50  0000 C CNN
F 2 "" H 6900 1750 50  0001 C CNN
F 3 "" H 6900 1750 50  0001 C CNN
	1    6900 1750
	1    0    0    -1  
$EndComp
Wire Wire Line
	6900 1750 6900 1350
Wire Wire Line
	6650 850  6800 850 
Wire Wire Line
	6900 1050 6900 850 
Connection ~ 6900 850 
Wire Wire Line
	6900 850  7100 850 
Wire Wire Line
	6650 1150 6800 1150
Wire Wire Line
	6800 1150 6800 850 
Connection ~ 6800 850 
Wire Wire Line
	6800 850  6900 850 
$Comp
L Switch:SW_DPDT_x2 SW2
U 2 1 605BB3E0
P 3050 4000
F 0 "SW2" V 3096 4148 50  0000 L CNN
F 1 "Off/On" V 3005 4148 50  0000 L CNN
F 2 "" H 3050 4000 50  0001 C CNN
F 3 "~" H 3050 4000 50  0001 C CNN
	2    3050 4000
	0    -1   -1   0   
$EndComp
$Comp
L Amplifier_Operational:LM324 IC1
U 2 1 605BC8A9
P 2300 3350
F 0 "IC1" H 2300 3717 50  0000 C CNN
F 1 "LM324" H 2300 3626 50  0000 C CNN
F 2 "" H 2250 3450 50  0001 C CNN
F 3 "http://www.ti.com/lit/ds/symlink/lm2902-n.pdf" H 2350 3550 50  0001 C CNN
	2    2300 3350
	1    0    0    -1  
$EndComp
$Comp
L Device:R R8
U 1 1 605BF4D9
P 1200 3750
F 0 "R8" H 1270 3796 50  0000 L CNN
F 1 "330" H 1270 3705 50  0000 L CNN
F 2 "" V 1130 3750 50  0001 C CNN
F 3 "~" H 1200 3750 50  0001 C CNN
	1    1200 3750
	1    0    0    -1  
$EndComp
Wire Wire Line
	1200 3400 1200 3600
Wire Wire Line
	1350 3250 1700 3250
$Comp
L Device:R R10
U 1 1 605C221B
P 1850 3950
F 0 "R10" H 1920 3996 50  0000 L CNN
F 1 "2k2" H 1920 3905 50  0000 L CNN
F 2 "" V 1780 3950 50  0001 C CNN
F 3 "~" H 1850 3950 50  0001 C CNN
	1    1850 3950
	1    0    0    -1  
$EndComp
Wire Wire Line
	1850 3800 1850 3750
Wire Wire Line
	1850 3450 2000 3450
$Comp
L Device:D_Zener D6
U 1 1 605C55FA
P 2350 3750
F 0 "D6" H 2350 3533 50  0000 C CNN
F 1 "5V1" H 2350 3624 50  0000 C CNN
F 2 "" H 2350 3750 50  0001 C CNN
F 3 "~" H 2350 3750 50  0001 C CNN
	1    2350 3750
	-1   0    0    1   
$EndComp
Wire Wire Line
	2200 3750 1850 3750
Connection ~ 1850 3750
Wire Wire Line
	1850 3750 1850 3450
Wire Wire Line
	2600 3350 2700 3350
Wire Wire Line
	2500 3750 2700 3750
Wire Wire Line
	2700 3750 2700 3350
Connection ~ 2700 3350
Wire Wire Line
	2700 3350 2800 3350
$Comp
L Device:R R11
U 1 1 605CA4B0
P 2250 2800
F 0 "R11" V 2043 2800 50  0000 C CNN
F 1 "12k" V 2134 2800 50  0000 C CNN
F 2 "" V 2180 2800 50  0001 C CNN
F 3 "~" H 2250 2800 50  0001 C CNN
	1    2250 2800
	0    1    1    0   
$EndComp
Wire Wire Line
	2100 2800 1700 2800
Wire Wire Line
	1700 2800 1700 3250
Connection ~ 1700 3250
Wire Wire Line
	1700 3250 2000 3250
Wire Wire Line
	2400 2800 2900 2800
Wire Wire Line
	2900 2800 2900 3350
Connection ~ 2900 3350
$Comp
L Device:R R38
U 1 1 605CEF83
P 2900 2500
F 0 "R38" H 2970 2546 50  0000 L CNN
F 1 "330k" H 2970 2455 50  0000 L CNN
F 2 "" V 2830 2500 50  0001 C CNN
F 3 "~" H 2900 2500 50  0001 C CNN
	1    2900 2500
	1    0    0    -1  
$EndComp
Wire Wire Line
	2900 2650 2900 2800
Connection ~ 2900 2800
$Comp
L power:+15V #PWR?
U 1 1 605E972B
P 2900 2250
F 0 "#PWR?" H 2900 2100 50  0001 C CNN
F 1 "+15V" H 2915 2423 50  0000 C CNN
F 2 "" H 2900 2250 50  0001 C CNN
F 3 "" H 2900 2250 50  0001 C CNN
	1    2900 2250
	1    0    0    -1  
$EndComp
Wire Wire Line
	2900 2350 2900 2250
$Comp
L power:+15V #PWR?
U 1 1 605ECEF9
P 7100 700
F 0 "#PWR?" H 7100 550 50  0001 C CNN
F 1 "+15V" H 7115 873 50  0000 C CNN
F 2 "" H 7100 700 50  0001 C CNN
F 3 "" H 7100 700 50  0001 C CNN
	1    7100 700 
	1    0    0    -1  
$EndComp
Wire Wire Line
	7100 700  7100 750 
Connection ~ 7100 850 
$Comp
L Device:R R28
U 1 1 605F16B3
P 3600 3550
F 0 "R28" H 3670 3596 50  0000 L CNN
F 1 "8k2" H 3670 3505 50  0000 L CNN
F 2 "" V 3530 3550 50  0001 C CNN
F 3 "~" H 3600 3550 50  0001 C CNN
	1    3600 3550
	1    0    0    -1  
$EndComp
Wire Wire Line
	2900 3350 3600 3350
Wire Wire Line
	3600 3350 3600 3400
Connection ~ 3600 3350
$Comp
L power:GND #PWR?
U 1 1 606048F2
P 3050 4250
F 0 "#PWR?" H 3050 4000 50  0001 C CNN
F 1 "GND" H 3055 4077 50  0000 C CNN
F 2 "" H 3050 4250 50  0001 C CNN
F 3 "" H 3050 4250 50  0001 C CNN
	1    3050 4250
	1    0    0    -1  
$EndComp
Wire Wire Line
	3050 4250 3050 4200
Wire Wire Line
	3600 3700 3600 3750
Wire Wire Line
	3150 3800 3150 3750
Wire Wire Line
	3150 3750 3600 3750
Connection ~ 3600 3750
Wire Wire Line
	3600 3750 3600 3850
$Comp
L Device:R R24
U 1 1 6061658D
P 4250 3350
F 0 "R24" V 4043 3350 50  0000 C CNN
F 1 "120k" V 4134 3350 50  0000 C CNN
F 2 "" V 4180 3350 50  0001 C CNN
F 3 "~" H 4250 3350 50  0001 C CNN
	1    4250 3350
	0    1    1    0   
$EndComp
Wire Wire Line
	3600 3350 4100 3350
$Comp
L Device:R R21
U 1 1 60619C5B
P 4550 3550
F 0 "R21" H 4620 3596 50  0000 L CNN
F 1 "2k2" H 4620 3505 50  0000 L CNN
F 2 "" V 4480 3550 50  0001 C CNN
F 3 "~" H 4550 3550 50  0001 C CNN
	1    4550 3550
	1    0    0    -1  
$EndComp
Wire Wire Line
	4400 3350 4550 3350
Wire Wire Line
	4550 3400 4550 3350
Connection ~ 4550 3350
$Comp
L power:GND #PWR?
U 1 1 6061F52A
P 4550 3800
F 0 "#PWR?" H 4550 3550 50  0001 C CNN
F 1 "GND" H 4555 3627 50  0000 C CNN
F 2 "" H 4550 3800 50  0001 C CNN
F 3 "" H 4550 3800 50  0001 C CNN
	1    4550 3800
	1    0    0    -1  
$EndComp
Wire Wire Line
	4550 3800 4550 3700
$Comp
L Device:R_POT R27
U 1 1 60622698
P 3600 4000
F 0 "R27" H 3531 4046 50  0000 R CNN
F 1 "22k" H 3531 3955 50  0000 R CNN
F 2 "" H 3600 4000 50  0001 C CNN
F 3 "~" H 3600 4000 50  0001 C CNN
	1    3600 4000
	1    0    0    -1  
$EndComp
$Comp
L Device:R_POT_TRIM R9
U 1 1 606243B2
P 1200 3250
F 0 "R9" H 1130 3296 50  0000 R CNN
F 1 "10k" H 1130 3205 50  0000 R CNN
F 2 "" H 1200 3250 50  0001 C CNN
F 3 "~" H 1200 3250 50  0001 C CNN
	1    1200 3250
	1    0    0    -1  
$EndComp
$Comp
L Amplifier_Operational:LM324 IC1
U 1 1 6062A36C
P 5550 2600
F 0 "IC1" H 5550 2967 50  0000 C CNN
F 1 "LM324" H 5550 2876 50  0000 C CNN
F 2 "" H 5500 2700 50  0001 C CNN
F 3 "http://www.ti.com/lit/ds/symlink/lm2902-n.pdf" H 5600 2800 50  0001 C CNN
	1    5550 2600
	1    0    0    -1  
$EndComp
Wire Wire Line
	3750 4000 3900 4000
Wire Wire Line
	3900 4000 3900 2500
$Comp
L Device:R R25
U 1 1 6062EF7F
P 4800 3200
F 0 "R25" H 4870 3246 50  0000 L CNN
F 1 "220k" H 4870 3155 50  0000 L CNN
F 2 "" V 4730 3200 50  0001 C CNN
F 3 "~" H 4800 3200 50  0001 C CNN
	1    4800 3200
	1    0    0    -1  
$EndComp
Wire Wire Line
	4550 3350 4800 3350
Wire Wire Line
	4800 3050 4800 2950
Wire Wire Line
	4800 2950 7300 2950
$Comp
L Connector:TestPoint TP2
U 1 1 60644EFA
P 10050 2950
F 0 "TP2" V 10004 3138 50  0000 L CNN
F 1 "." V 10095 3138 50  0000 L CNN
F 2 "" H 10250 2950 50  0001 C CNN
F 3 "~" H 10250 2950 50  0001 C CNN
	1    10050 2950
	0    1    1    0   
$EndComp
$Comp
L Device:R Rz1
U 1 1 60647952
P 9950 3200
F 0 "Rz1" H 10020 3246 50  0000 L CNN
F 1 "0" H 10020 3155 50  0000 L CNN
F 2 "" V 9880 3200 50  0001 C CNN
F 3 "~" H 9950 3200 50  0001 C CNN
	1    9950 3200
	1    0    0    -1  
$EndComp
$Comp
L Connector:TestPoint TP6
U 1 1 60648B40
P 10050 3500
F 0 "TP6" V 10004 3688 50  0000 L CNN
F 1 "." V 10095 3688 50  0000 L CNN
F 2 "" H 10250 3500 50  0001 C CNN
F 3 "~" H 10250 3500 50  0001 C CNN
	1    10050 3500
	0    1    1    0   
$EndComp
Wire Wire Line
	10050 3500 9950 3500
Wire Wire Line
	9950 3350 9950 3500
Connection ~ 9950 3500
Wire Wire Line
	9950 3050 9950 2950
Connection ~ 9950 2950
Wire Wire Line
	9950 2950 10050 2950
$Comp
L Device:R R30
U 1 1 6065273A
P 9550 3800
F 0 "R30" H 9620 3846 50  0000 L CNN
F 1 "27k" H 9620 3755 50  0000 L CNN
F 2 "" V 9480 3800 50  0001 C CNN
F 3 "~" H 9550 3800 50  0001 C CNN
	1    9550 3800
	1    0    0    -1  
$EndComp
Wire Wire Line
	9550 3500 9550 3600
Wire Wire Line
	9550 3500 9950 3500
Text Label 9600 3500 0    50   ~ 0
Sense+
Text Label 9700 2950 0    50   ~ 0
Out+
$Comp
L Device:C C6
U 1 1 60657AFC
P 9100 3800
F 0 "C6" H 9215 3846 50  0000 L CNN
F 1 "10nF" H 9215 3755 50  0000 L CNN
F 2 "" H 9138 3650 50  0001 C CNN
F 3 "~" H 9100 3800 50  0001 C CNN
	1    9100 3800
	1    0    0    -1  
$EndComp
Connection ~ 9550 3600
Wire Wire Line
	9550 3600 9550 3650
Wire Wire Line
	9550 3950 9550 4050
Connection ~ 9550 4050
$Comp
L Device:R R31
U 1 1 60662C52
P 9550 4450
F 0 "R31" H 9620 4496 50  0000 L CNN
F 1 "4k7" H 9620 4405 50  0000 L CNN
F 2 "" V 9480 4450 50  0001 C CNN
F 3 "~" H 9550 4450 50  0001 C CNN
	1    9550 4450
	1    0    0    -1  
$EndComp
Wire Wire Line
	9550 4050 9550 4200
Wire Wire Line
	9100 3950 9100 4050
Wire Wire Line
	9100 3650 9100 3600
Wire Wire Line
	9100 3600 9550 3600
Wire Wire Line
	9100 4050 9550 4050
$Comp
L Device:R R29
U 1 1 6067245E
P 8850 4200
F 0 "R29" V 8643 4200 50  0000 C CNN
F 1 "15k" V 8734 4200 50  0000 C CNN
F 2 "" V 8780 4200 50  0001 C CNN
F 3 "~" H 8850 4200 50  0001 C CNN
	1    8850 4200
	0    1    1    0   
$EndComp
Wire Wire Line
	9000 4200 9550 4200
Connection ~ 9550 4200
Wire Wire Line
	9550 4200 9550 4300
Wire Wire Line
	9550 4600 9550 4750
Wire Wire Line
	9550 4750 3600 4750
Connection ~ 1850 4750
Wire Wire Line
	1850 4750 1200 4750
Connection ~ 3600 4750
Wire Wire Line
	3600 4750 1850 4750
Wire Wire Line
	1200 3900 1200 4750
Wire Wire Line
	1850 4100 1850 4750
Wire Wire Line
	3600 4150 3600 4750
$Comp
L Amplifier_Operational:LM324 IC1
U 5 1 6068846C
P 7650 1250
F 0 "IC1" H 7608 1296 50  0000 L CNN
F 1 "LM324" H 7608 1205 50  0000 L CNN
F 2 "" H 7600 1350 50  0001 C CNN
F 3 "http://www.ti.com/lit/ds/symlink/lm2902-n.pdf" H 7700 1450 50  0001 C CNN
	5    7650 1250
	1    0    0    -1  
$EndComp
$Comp
L power:GND #PWR?
U 1 1 6068F8C7
P 7550 1750
F 0 "#PWR?" H 7550 1500 50  0001 C CNN
F 1 "GND" H 7555 1577 50  0000 C CNN
F 2 "" H 7550 1750 50  0001 C CNN
F 3 "" H 7550 1750 50  0001 C CNN
	1    7550 1750
	1    0    0    -1  
$EndComp
Wire Wire Line
	7550 1750 7550 1550
$Comp
L Amplifier_Operational:LM324 IC1
U 3 1 6069CBE2
P 5550 5300
F 0 "IC1" H 5550 5667 50  0000 C CNN
F 1 "LM324" H 5550 5576 50  0000 C CNN
F 2 "" H 5500 5400 50  0001 C CNN
F 3 "http://www.ti.com/lit/ds/symlink/lm2902-n.pdf" H 5600 5500 50  0001 C CNN
	3    5550 5300
	1    0    0    -1  
$EndComp
$Comp
L Device:C C8
U 1 1 606A100F
P 5550 5850
F 0 "C8" V 5298 5850 50  0000 C CNN
F 1 "1nF" V 5389 5850 50  0000 C CNN
F 2 "" H 5588 5700 50  0001 C CNN
F 3 "~" H 5550 5850 50  0001 C CNN
	1    5550 5850
	0    1    1    0   
$EndComp
$Comp
L Amplifier_Operational:LM324 IC1
U 4 1 60686B98
P 5500 6500
F 0 "IC1" H 5500 6867 50  0000 C CNN
F 1 "LM324" H 5500 6776 50  0000 C CNN
F 2 "" H 5450 6600 50  0001 C CNN
F 3 "http://www.ti.com/lit/ds/symlink/lm2902-n.pdf" H 5550 6700 50  0001 C CNN
	4    5500 6500
	1    0    0    -1  
$EndComp
Wire Wire Line
	5250 5400 5050 5400
Wire Wire Line
	5400 5850 5050 5850
Wire Wire Line
	5050 5850 5050 5400
Connection ~ 5050 5400
Wire Wire Line
	5850 5300 5900 5300
Wire Wire Line
	5700 5850 5900 5850
Wire Wire Line
	5900 5850 5900 5300
Connection ~ 5900 5300
Wire Wire Line
	5900 5300 6150 5300
$Comp
L Device:D D7
U 1 1 606B150B
P 6300 5300
F 0 "D7" H 6300 5517 50  0000 C CNN
F 1 "1N4148" H 6300 5426 50  0000 C CNN
F 2 "" H 6300 5300 50  0001 C CNN
F 3 "~" H 6300 5300 50  0001 C CNN
	1    6300 5300
	1    0    0    -1  
$EndComp
$Comp
L Device:D D8
U 1 1 606B1DEC
P 6300 6500
F 0 "D8" H 6300 6717 50  0000 C CNN
F 1 "1N4148" H 6300 6626 50  0000 C CNN
F 2 "" H 6300 6500 50  0001 C CNN
F 3 "~" H 6300 6500 50  0001 C CNN
	1    6300 6500
	1    0    0    -1  
$EndComp
Wire Wire Line
	6150 6500 5950 6500
$Comp
L Device:C C4
U 1 1 606B67B9
P 5550 7000
F 0 "C4" V 5298 7000 50  0000 C CNN
F 1 "1nF" V 5389 7000 50  0000 C CNN
F 2 "" H 5588 6850 50  0001 C CNN
F 3 "~" H 5550 7000 50  0001 C CNN
	1    5550 7000
	0    1    1    0   
$EndComp
Wire Wire Line
	5700 7000 5950 7000
Wire Wire Line
	5950 7000 5950 6500
Connection ~ 5950 6500
Wire Wire Line
	5950 6500 5800 6500
Wire Wire Line
	5200 6600 5050 6600
Wire Wire Line
	5050 6600 5050 7000
Wire Wire Line
	5050 7000 5400 7000
Connection ~ 5050 6600
Wire Wire Line
	5050 6600 4750 6600
Wire Wire Line
	5250 2500 3900 2500
Wire Wire Line
	5250 2700 5150 2700
Wire Wire Line
	5150 2700 5150 4200
Wire Wire Line
	5150 4200 8700 4200
$Comp
L Device:R R26
U 1 1 606DE441
P 6300 2600
F 0 "R26" V 6093 2600 50  0000 C CNN
F 1 "4k7" V 6184 2600 50  0000 C CNN
F 2 "" V 6230 2600 50  0001 C CNN
F 3 "~" H 6300 2600 50  0001 C CNN
	1    6300 2600
	0    1    1    0   
$EndComp
Wire Wire Line
	6150 2600 5850 2600
$Comp
L Device:R R23
U 1 1 606E4419
P 6850 2600
F 0 "R23" V 6643 2600 50  0000 C CNN
F 1 "4k7" V 6734 2600 50  0000 C CNN
F 2 "" V 6780 2600 50  0001 C CNN
F 3 "~" H 6850 2600 50  0001 C CNN
	1    6850 2600
	0    1    1    0   
$EndComp
Wire Wire Line
	6700 2600 6600 2600
Wire Wire Line
	6600 2600 6600 5300
Wire Wire Line
	6600 6500 6450 6500
Connection ~ 6600 2600
Wire Wire Line
	6600 2600 6450 2600
Wire Wire Line
	6450 5300 6600 5300
Connection ~ 6600 5300
Wire Wire Line
	6600 5300 6600 6500
Wire Wire Line
	4800 3350 4800 5200
Wire Wire Line
	4800 5200 5250 5200
Connection ~ 4800 3350
$Comp
L Device:R R18
U 1 1 606FC4A2
P 4600 6600
F 0 "R18" V 4393 6600 50  0000 C CNN
F 1 "15k" V 4484 6600 50  0000 C CNN
F 2 "" V 4530 6600 50  0001 C CNN
F 3 "~" H 4600 6600 50  0001 C CNN
	1    4600 6600
	0    1    1    0   
$EndComp
$Comp
L power:GND #PWR?
U 1 1 606FD977
P 3300 7550
F 0 "#PWR?" H 3300 7300 50  0001 C CNN
F 1 "GND" H 3305 7377 50  0000 C CNN
F 2 "" H 3300 7550 50  0001 C CNN
F 3 "" H 3300 7550 50  0001 C CNN
	1    3300 7550
	1    0    0    -1  
$EndComp
Wire Wire Line
	2800 3350 2800 4950
Connection ~ 2800 3350
Wire Wire Line
	2800 3350 2900 3350
$Comp
L Device:R_POT_TRIM R12
U 1 1 607107BB
P 2800 5100
F 0 "R12" H 2731 5146 50  0000 R CNN
F 1 "22k" H 2731 5055 50  0000 R CNN
F 2 "" H 2800 5100 50  0001 C CNN
F 3 "~" H 2800 5100 50  0001 C CNN
	1    2800 5100
	1    0    0    -1  
$EndComp
$Comp
L Device:R R13
U 1 1 60712341
P 3050 5400
F 0 "R13" H 3120 5446 50  0000 L CNN
F 1 "8k2" H 3120 5355 50  0000 L CNN
F 2 "" V 2980 5400 50  0001 C CNN
F 3 "~" H 3050 5400 50  0001 C CNN
	1    3050 5400
	1    0    0    -1  
$EndComp
Wire Wire Line
	2950 5100 3050 5100
Wire Wire Line
	3050 5100 3050 5250
$Comp
L Device:R R22
U 1 1 607194B0
P 4600 5950
F 0 "R22" V 4393 5950 50  0000 C CNN
F 1 "15k" V 4484 5950 50  0000 C CNN
F 2 "" V 4530 5950 50  0001 C CNN
F 3 "~" H 4600 5950 50  0001 C CNN
	1    4600 5950
	0    1    1    0   
$EndComp
Wire Wire Line
	4850 6400 5200 6400
$Comp
L Device:R_POT R15
U 1 1 60720EAF
P 3400 5950
F 0 "R15" H 3331 5996 50  0000 R CNN
F 1 "1k" H 3331 5905 50  0000 R CNN
F 2 "" H 3400 5950 50  0001 C CNN
F 3 "~" H 3400 5950 50  0001 C CNN
	1    3400 5950
	1    0    0    -1  
$EndComp
Wire Wire Line
	3050 5550 3050 5700
$Comp
L Device:R R14
U 1 1 60734F5B
P 3050 6750
F 0 "R14" H 3120 6796 50  0000 L CNN
F 1 "2k7" H 3120 6705 50  0000 L CNN
F 2 "" V 2980 6750 50  0001 C CNN
F 3 "~" H 3050 6750 50  0001 C CNN
	1    3050 6750
	1    0    0    -1  
$EndComp
Wire Wire Line
	3050 6900 3050 7050
$Comp
L Device:R R19
U 1 1 6073D427
P 4300 7400
F 0 "R19" H 4370 7446 50  0000 L CNN
F 1 "1k" H 4370 7355 50  0000 L CNN
F 2 "" V 4230 7400 50  0001 C CNN
F 3 "~" H 4300 7400 50  0001 C CNN
	1    4300 7400
	1    0    0    -1  
$EndComp
$Comp
L Device:R R20
U 1 1 6073E488
P 4300 6950
F 0 "R20" H 4370 6996 50  0000 L CNN
F 1 "820" H 4370 6905 50  0000 L CNN
F 2 "" V 4230 6950 50  0001 C CNN
F 3 "~" H 4300 6950 50  0001 C CNN
	1    4300 6950
	1    0    0    -1  
$EndComp
Wire Wire Line
	4300 7100 4300 7150
Wire Wire Line
	4300 7150 4150 7150
Wire Wire Line
	4150 7150 4150 5400
Wire Wire Line
	4150 5400 5050 5400
Connection ~ 4300 7150
Wire Wire Line
	4300 7150 4300 7250
Wire Wire Line
	4300 6800 4300 6750
Wire Wire Line
	4300 6600 4450 6600
Wire Wire Line
	3050 7050 3200 7050
Wire Wire Line
	3300 7550 3300 7450
Wire Wire Line
	3400 7050 3850 7050
Wire Wire Line
	3850 7050 3850 7650
Wire Wire Line
	3850 7650 4300 7650
Wire Wire Line
	4300 7650 4300 7550
$Comp
L power:GND #PWR?
U 1 1 60775516
P 9950 6300
F 0 "#PWR?" H 9950 6050 50  0001 C CNN
F 1 "GND" H 9955 6127 50  0000 C CNN
F 2 "" H 9950 6300 50  0001 C CNN
F 3 "" H 9950 6300 50  0001 C CNN
	1    9950 6300
	1    0    0    -1  
$EndComp
$Comp
L Device:R R17
U 1 1 60775EA7
P 9950 5950
F 0 "R17" H 10020 5996 50  0000 L CNN
F 1 "0R2" H 10020 5905 50  0000 L CNN
F 2 "" V 9880 5950 50  0001 C CNN
F 3 "~" H 9950 5950 50  0001 C CNN
	1    9950 5950
	1    0    0    -1  
$EndComp
$Comp
L Device:C C3
U 1 1 6078172B
P 9500 5950
F 0 "C3" H 9615 5996 50  0000 L CNN
F 1 "0.1 uF" H 9615 5905 50  0000 L CNN
F 2 "" H 9538 5800 50  0001 C CNN
F 3 "~" H 9500 5950 50  0001 C CNN
	1    9500 5950
	1    0    0    -1  
$EndComp
$Comp
L Connector:TestPoint TP1
U 1 1 6079A2FD
P 10100 5600
F 0 "TP1" V 10054 5788 50  0000 L CNN
F 1 "." V 10145 5788 50  0000 L CNN
F 2 "" H 10300 5600 50  0001 C CNN
F 3 "~" H 10300 5600 50  0001 C CNN
	1    10100 5600
	0    1    1    0   
$EndComp
$Comp
L Device:R Rz2
U 1 1 607A64BC
P 9950 5350
F 0 "Rz2" H 10020 5396 50  0000 L CNN
F 1 "0" H 10020 5305 50  0000 L CNN
F 2 "" V 9880 5350 50  0001 C CNN
F 3 "~" H 9950 5350 50  0001 C CNN
	1    9950 5350
	1    0    0    -1  
$EndComp
Wire Wire Line
	9950 6100 9950 6200
Connection ~ 9950 6200
Wire Wire Line
	9950 6200 9950 6300
Wire Wire Line
	9950 5800 9950 5700
Connection ~ 9950 5700
Wire Wire Line
	9950 5700 9950 5600
Connection ~ 9950 5600
Wire Wire Line
	9950 5600 9950 5500
Wire Wire Line
	9950 5600 10100 5600
Text Label 9650 5600 0    50   ~ 0
Out-
Wire Wire Line
	9550 4750 9550 5100
Wire Wire Line
	9550 5100 9950 5100
Connection ~ 9550 4750
$Comp
L Connector:TestPoint TP7
U 1 1 607DD8B4
P 10100 5100
F 0 "TP7" V 10054 5288 50  0000 L CNN
F 1 "." V 10145 5288 50  0000 L CNN
F 2 "" H 10300 5100 50  0001 C CNN
F 3 "~" H 10300 5100 50  0001 C CNN
	1    10100 5100
	0    1    1    0   
$EndComp
Wire Wire Line
	9950 5200 9950 5100
Connection ~ 9950 5100
Wire Wire Line
	9950 5100 10100 5100
Text Label 9600 5100 0    50   ~ 0
Sense-
Wire Wire Line
	6900 5600 6900 7200
Wire Wire Line
	6900 7200 4550 7200
Wire Wire Line
	4550 7200 4550 6750
Wire Wire Line
	4550 6750 4300 6750
Wire Wire Line
	6900 5600 7000 5600
Connection ~ 4300 6750
Wire Wire Line
	4300 6750 4300 6600
$Comp
L Device:R R36
U 1 1 607F287B
P 7000 5350
F 0 "R36" H 7070 5396 50  0000 L CNN
F 1 "3k9" H 7070 5305 50  0000 L CNN
F 2 "" V 6930 5350 50  0001 C CNN
F 3 "~" H 7000 5350 50  0001 C CNN
	1    7000 5350
	1    0    0    -1  
$EndComp
$Comp
L Device:D D9
U 1 1 607F4B77
P 7300 5350
F 0 "D9" V 7254 5430 50  0000 L CNN
F 1 "1N4001" V 7345 5430 50  0000 L CNN
F 2 "" H 7300 5350 50  0001 C CNN
F 3 "~" H 7300 5350 50  0001 C CNN
	1    7300 5350
	0    1    1    0   
$EndComp
Wire Wire Line
	7300 5500 7300 5600
Connection ~ 7300 5600
Wire Wire Line
	7300 5600 7800 5600
Wire Wire Line
	7000 5500 7000 5600
Connection ~ 7000 5600
Wire Wire Line
	7000 5600 7300 5600
Connection ~ 7300 2950
Wire Wire Line
	7300 2950 9650 2950
Wire Wire Line
	7300 5200 7300 5100
$Comp
L Device:CP C7
U 1 1 60812E77
P 7800 5350
F 0 "C7" H 7918 5396 50  0000 L CNN
F 1 "100 uF 63V" H 7918 5305 50  0000 L CNN
F 2 "" H 7838 5200 50  0001 C CNN
F 3 "~" H 7800 5350 50  0001 C CNN
	1    7800 5350
	1    0    0    -1  
$EndComp
Wire Wire Line
	7800 5500 7800 5600
Connection ~ 7800 5600
Wire Wire Line
	7800 5600 9450 5600
Wire Wire Line
	7800 5200 7800 5100
Wire Wire Line
	7800 5100 7300 5100
Connection ~ 7300 5100
Wire Wire Line
	7300 5100 7300 5000
Wire Wire Line
	7000 5200 7000 5000
Wire Wire Line
	7000 5000 7300 5000
Connection ~ 7300 5000
Wire Wire Line
	7300 5000 7300 4300
$Comp
L Device:Voltmeter_DC MES1
U 1 1 60830542
P 8650 5150
F 0 "MES1" H 8498 5196 50  0000 R CNN
F 1 "meter V / A" H 8498 5105 50  0000 R CNN
F 2 "" V 8650 5250 50  0001 C CNN
F 3 "~" V 8650 5250 50  0001 C CNN
	1    8650 5150
	1    0    0    -1  
$EndComp
$Comp
L Device:R R34
U 1 1 6083136F
P 8550 5950
F 0 "R34" H 8620 5996 50  0000 L CNN
F 1 "220" H 8620 5905 50  0000 L CNN
F 2 "" V 8480 5950 50  0001 C CNN
F 3 "~" H 8550 5950 50  0001 C CNN
	1    8550 5950
	1    0    0    -1  
$EndComp
$Comp
L Device:R R35
U 1 1 608320B3
P 8900 5950
F 0 "R35" H 8970 5996 50  0000 L CNN
F 1 "470" H 8970 5905 50  0000 L CNN
F 2 "" V 8830 5950 50  0001 C CNN
F 3 "~" H 8900 5950 50  0001 C CNN
	1    8900 5950
	1    0    0    -1  
$EndComp
$Comp
L power:GND #PWR?
U 1 1 6083324E
P 8750 6250
F 0 "#PWR?" H 8750 6000 50  0001 C CNN
F 1 "GND" H 8755 6077 50  0000 C CNN
F 2 "" H 8750 6250 50  0001 C CNN
F 3 "" H 8750 6250 50  0001 C CNN
	1    8750 6250
	1    0    0    -1  
$EndComp
Wire Wire Line
	8550 6100 8550 6150
Wire Wire Line
	8550 6150 8750 6150
Wire Wire Line
	8900 6150 8900 6100
Wire Wire Line
	8750 6250 8750 6150
Connection ~ 8750 6150
Wire Wire Line
	8750 6150 8900 6150
Wire Wire Line
	8550 5800 8550 5750
Wire Wire Line
	8550 5750 8650 5750
Wire Wire Line
	8900 5750 8900 5800
Wire Wire Line
	8650 5350 8650 5500
Connection ~ 8650 5750
Wire Wire Line
	8650 5750 8900 5750
$Comp
L Switch:SW_SPDT SW3
U 1 1 6085CE11
P 9150 5150
F 0 "SW3" H 9150 4825 50  0000 C CNN
F 1 "current / voltage" H 9150 4916 50  0000 C CNN
F 2 "" H 9150 5150 50  0001 C CNN
F 3 "~" H 9150 5150 50  0001 C CNN
	1    9150 5150
	-1   0    0    1   
$EndComp
$Comp
L Device:R R32
U 1 1 6085DEDF
P 8550 4500
F 0 "R32" H 8620 4546 50  0000 L CNN
F 1 "82k" H 8620 4455 50  0000 L CNN
F 2 "" V 8480 4500 50  0001 C CNN
F 3 "~" H 8550 4500 50  0001 C CNN
	1    8550 4500
	1    0    0    -1  
$EndComp
$Comp
L Device:R R33
U 1 1 6085EAC1
P 8850 4500
F 0 "R33" H 8920 4546 50  0000 L CNN
F 1 "220k" H 8920 4455 50  0000 L CNN
F 2 "" V 8780 4500 50  0001 C CNN
F 3 "~" H 8850 4500 50  0001 C CNN
	1    8850 4500
	1    0    0    -1  
$EndComp
Wire Wire Line
	8850 4650 8650 4650
Wire Wire Line
	8650 4950 8650 4900
Connection ~ 8650 4650
Wire Wire Line
	8650 4650 8550 4650
$Comp
L Connector:TestPoint TP12
U 1 1 6088173D
P 8650 5500
F 0 "TP12" V 8845 5572 50  0000 C CNN
F 1 "." V 8754 5572 50  0000 C CNN
F 2 "" H 8850 5500 50  0001 C CNN
F 3 "~" H 8850 5500 50  0001 C CNN
	1    8650 5500
	0    -1   -1   0   
$EndComp
Connection ~ 8650 5500
Wire Wire Line
	8650 5500 8650 5750
Wire Wire Line
	8650 5500 8950 5500
Wire Wire Line
	8950 5500 8950 5250
$Comp
L Connector:TestPoint TP11
U 1 1 6088E8CF
P 8650 4900
F 0 "TP11" V 8845 4972 50  0000 C CNN
F 1 "." V 8754 4972 50  0000 C CNN
F 2 "" H 8850 4900 50  0001 C CNN
F 3 "~" H 8850 4900 50  0001 C CNN
	1    8650 4900
	0    -1   -1   0   
$EndComp
Connection ~ 8650 4900
Wire Wire Line
	8650 4900 8650 4650
Wire Wire Line
	8650 4900 8950 4900
Wire Wire Line
	8950 4900 8950 5050
Wire Wire Line
	9350 5150 9450 5150
Wire Wire Line
	9450 5150 9450 5600
Connection ~ 9450 5600
Wire Wire Line
	9450 5600 9950 5600
Connection ~ 7300 4300
Wire Wire Line
	7300 4300 7300 2950
Wire Wire Line
	8650 4350 8650 4300
Connection ~ 8650 4350
Wire Wire Line
	8650 4350 8550 4350
Wire Wire Line
	8650 4300 7300 4300
Wire Wire Line
	8650 4350 8850 4350
Wire Wire Line
	9950 5700 9500 5700
Wire Wire Line
	9500 5700 9500 5800
Wire Wire Line
	9950 6200 9500 6200
Wire Wire Line
	9500 6200 9500 6100
$Comp
L power:GND #PWR?
U 1 1 608E9356
P 8150 2700
F 0 "#PWR?" H 8150 2450 50  0001 C CNN
F 1 "GND" H 8155 2527 50  0000 C CNN
F 2 "" H 8150 2700 50  0001 C CNN
F 3 "" H 8150 2700 50  0001 C CNN
	1    8150 2700
	1    0    0    -1  
$EndComp
$Comp
L Transistor_BJT:BC547 T3
U 1 1 608E9FB7
P 8050 2400
F 0 "T3" H 8241 2446 50  0000 L CNN
F 1 "BC547" H 8241 2355 50  0000 L CNN
F 2 "Package_TO_SOT_THT:TO-92_Inline" H 8250 2325 50  0001 L CIN
F 3 "https://www.onsemi.com/pub/Collateral/BC550-D.pdf" H 8050 2400 50  0001 L CNN
	1    8050 2400
	1    0    0    -1  
$EndComp
Wire Wire Line
	8150 2600 8150 2700
$Comp
L Device:R R7
U 1 1 608F7518
P 7650 2550
F 0 "R7" H 7720 2596 50  0000 L CNN
F 1 "1k" H 7720 2505 50  0000 L CNN
F 2 "" V 7580 2550 50  0001 C CNN
F 3 "~" H 7650 2550 50  0001 C CNN
	1    7650 2550
	1    0    0    -1  
$EndComp
Wire Wire Line
	7650 2700 8150 2700
Connection ~ 8150 2700
Wire Wire Line
	7850 2400 7650 2400
Wire Wire Line
	8150 2200 8150 2150
$Comp
L Device:C C5
U 1 1 60972ACB
P 7850 2150
F 0 "C5" V 7598 2150 50  0000 C CNN
F 1 "1 nF" V 7689 2150 50  0000 C CNN
F 2 "" H 7888 2000 50  0001 C CNN
F 3 "~" H 7850 2150 50  0001 C CNN
	1    7850 2150
	0    1    1    0   
$EndComp
$Comp
L Device:R R6
U 1 1 6097443C
P 7400 2150
F 0 "R6" V 7193 2150 50  0000 C CNN
F 1 "4k7" V 7284 2150 50  0000 C CNN
F 2 "" V 7330 2150 50  0001 C CNN
F 3 "~" H 7400 2150 50  0001 C CNN
	1    7400 2150
	0    1    1    0   
$EndComp
Wire Wire Line
	7550 2150 7700 2150
Wire Wire Line
	8000 2150 8150 2150
Connection ~ 8150 2150
Wire Wire Line
	8150 2150 8150 2050
Wire Wire Line
	7650 2400 7150 2400
Wire Wire Line
	7100 2400 7100 2600
Wire Wire Line
	7100 2600 7000 2600
Connection ~ 7650 2400
Wire Wire Line
	7250 2150 7150 2150
Wire Wire Line
	7150 2150 7150 2400
Connection ~ 7150 2400
Wire Wire Line
	7150 2400 7100 2400
$Comp
L Device:R R4
U 1 1 609AAE4B
P 8150 1900
F 0 "R4" H 8220 1946 50  0000 L CNN
F 1 "10k" H 8220 1855 50  0000 L CNN
F 2 "" V 8080 1900 50  0001 C CNN
F 3 "~" H 8150 1900 50  0001 C CNN
	1    8150 1900
	1    0    0    -1  
$EndComp
$Comp
L Device:R R1
U 1 1 609ACA3B
P 8150 1500
F 0 "R1" H 8220 1546 50  0000 L CNN
F 1 "1k" H 8220 1455 50  0000 L CNN
F 2 "" V 8080 1500 50  0001 C CNN
F 3 "~" H 8150 1500 50  0001 C CNN
	1    8150 1500
	1    0    0    -1  
$EndComp
Wire Wire Line
	8150 1650 8150 1750
$Comp
L Device:C C9
U 1 1 609BBEB4
P 8500 1900
F 0 "C9" H 8615 1946 50  0000 L CNN
F 1 "82 pF" H 8615 1855 50  0000 L CNN
F 2 "" H 8538 1750 50  0001 C CNN
F 3 "~" H 8500 1900 50  0001 C CNN
	1    8500 1900
	1    0    0    -1  
$EndComp
$Comp
L Transistor_BJT:BD136 T2
U 1 1 609BDDEE
P 9000 1750
F 0 "T2" H 9192 1704 50  0000 L CNN
F 1 "BD136" H 9192 1795 50  0000 L CNN
F 2 "Package_TO_SOT_THT:TO-126-3_Vertical" H 9200 1675 50  0001 L CIN
F 3 "http://www.st.com/internet/com/TECHNICAL_RESOURCES/TECHNICAL_LITERATURE/DATASHEET/CD00001225.pdf" H 9000 1750 50  0001 L CNN
	1    9000 1750
	1    0    0    1   
$EndComp
Wire Wire Line
	8800 1750 8500 1750
Wire Wire Line
	8150 1750 8500 1750
Connection ~ 8150 1750
Connection ~ 8500 1750
Wire Wire Line
	9100 1950 9100 2150
Wire Wire Line
	8500 2050 8500 2150
Wire Wire Line
	8500 2150 9100 2150
Connection ~ 9100 2150
Wire Wire Line
	8150 1350 8150 1250
Wire Wire Line
	8150 1250 9100 1250
Wire Wire Line
	9100 1250 9100 1550
Text Label 8300 1250 0    50   ~ 0
+V_rect
$Comp
L Device:R R5
U 1 1 60A07CE2
P 9100 2450
F 0 "R5" H 9170 2496 50  0000 L CNN
F 1 "100" H 9170 2405 50  0000 L CNN
F 2 "" V 9030 2450 50  0001 C CNN
F 3 "~" H 9100 2450 50  0001 C CNN
	1    9100 2450
	1    0    0    -1  
$EndComp
Wire Wire Line
	9100 2150 9100 2250
$Comp
L Transistor_BJT:2N3055 T1
U 1 1 60A19599
P 9550 2250
F 0 "T1" H 9740 2296 50  0000 L CNN
F 1 "2N3055" H 9740 2205 50  0000 L CNN
F 2 "Package_TO_SOT_THT:TO-3" H 9750 2175 50  0001 L CIN
F 3 "http://www.onsemi.com/pub_link/Collateral/2N3055-D.PDF" H 9550 2250 50  0001 L CNN
	1    9550 2250
	1    0    0    -1  
$EndComp
Wire Wire Line
	9350 2250 9250 2250
Connection ~ 9100 2250
Wire Wire Line
	9100 2250 9100 2300
Wire Wire Line
	9650 2450 9650 2600
Connection ~ 9650 2950
Wire Wire Line
	9650 2950 9950 2950
Wire Wire Line
	9100 2600 9100 2700
Wire Wire Line
	9100 2700 9650 2700
Connection ~ 9650 2700
Wire Wire Line
	9650 2700 9650 2950
Wire Wire Line
	9100 1250 9650 1250
Wire Wire Line
	9650 1250 9650 1950
Connection ~ 9100 1250
$Comp
L Device:R R16
U 1 1 60A630EA
P 3400 6400
F 0 "R16" H 3470 6446 50  0000 L CNN
F 1 "27" H 3470 6355 50  0000 L CNN
F 2 "" V 3330 6400 50  0001 C CNN
F 3 "~" H 3400 6400 50  0001 C CNN
	1    3400 6400
	1    0    0    -1  
$EndComp
$Comp
L Device:R_POT_TRIM R37
U 1 1 60A8EC5E
P 3800 6400
F 0 "R37" H 3730 6354 50  0000 R CNN
F 1 "100" H 3730 6445 50  0000 R CNN
F 2 "" H 3800 6400 50  0001 C CNN
F 3 "~" H 3800 6400 50  0001 C CNN
	1    3800 6400
	-1   0    0    1   
$EndComp
$Comp
L power:GND #PWR?
U 1 1 60A90744
P 3400 6700
F 0 "#PWR?" H 3400 6450 50  0001 C CNN
F 1 "GND" H 3405 6527 50  0000 C CNN
F 2 "" H 3400 6700 50  0001 C CNN
F 3 "" H 3400 6700 50  0001 C CNN
	1    3400 6700
	1    0    0    -1  
$EndComp
Wire Wire Line
	3400 6700 3400 6650
Wire Wire Line
	3400 6650 3650 6650
Wire Wire Line
	3650 6650 3650 6400
Connection ~ 3400 6650
Wire Wire Line
	3400 6650 3400 6550
Wire Wire Line
	3400 6100 3400 6150
Wire Wire Line
	3800 6250 3800 6150
Wire Wire Line
	3800 6150 3400 6150
Connection ~ 3400 6150
Wire Wire Line
	3400 6150 3400 6250
Wire Wire Line
	3400 5800 3400 5700
Wire Wire Line
	3400 5700 3050 5700
Connection ~ 3050 5700
Wire Wire Line
	3050 5700 3050 6600
Wire Wire Line
	4750 5950 4850 5950
Wire Wire Line
	4850 5950 4850 6400
Wire Wire Line
	3550 5950 4450 5950
Text Notes 2050 5150 0    50   ~ 0
max current\ntrim
Text Notes 750  3050 0    50   ~ 0
Reference voltage\ntrim
Text Notes 3350 4350 0    50   ~ 0
Voltage limit\nknob
Text Notes 2450 6000 0    50   ~ 0
current limit\nknob
Text Notes 3600 6800 0    50   ~ 0
min current\ntrim
Text Label 3050 3350 0    50   ~ 0
VREF_6V1
$Comp
L power:PWR_FLAG #FLG?
U 1 1 605DD71E
P 9950 6300
F 0 "#FLG?" H 9950 6375 50  0001 C CNN
F 1 "PWR_FLAG" V 9950 6428 50  0000 L CNN
F 2 "" H 9950 6300 50  0001 C CNN
F 3 "~" H 9950 6300 50  0001 C CNN
	1    9950 6300
	0    1    1    0   
$EndComp
Connection ~ 9950 6300
$Comp
L power:PWR_FLAG #FLG?
U 1 1 605DE288
P 7100 750
F 0 "#FLG?" H 7100 825 50  0001 C CNN
F 1 "PWR_FLAG" V 7100 878 50  0000 L CNN
F 2 "" H 7100 750 50  0001 C CNN
F 3 "~" H 7100 750 50  0001 C CNN
	1    7100 750 
	0    1    1    0   
$EndComp
Connection ~ 7100 750 
Wire Wire Line
	7100 750  7100 850 
NoConn ~ 3300 1300
NoConn ~ 1200 3100
NoConn ~ 2950 3800
NoConn ~ 2800 5250
NoConn ~ 3800 6550
$Comp
L Connector:TestPoint TP3
U 1 1 6066F963
P 9650 2600
F 0 "TP3" V 9604 2788 50  0000 L CNN
F 1 "." V 9695 2788 50  0000 L CNN
F 2 "" H 9850 2600 50  0001 C CNN
F 3 "~" H 9850 2600 50  0001 C CNN
	1    9650 2600
	0    1    1    0   
$EndComp
Connection ~ 9650 2600
Wire Wire Line
	9650 2600 9650 2700
$Comp
L Connector:TestPoint TP4
U 1 1 60670A15
P 9250 2250
F 0 "TP4" H 9308 2368 50  0000 L CNN
F 1 "." H 9308 2277 50  0000 L CNN
F 2 "" H 9450 2250 50  0001 C CNN
F 3 "~" H 9450 2250 50  0001 C CNN
	1    9250 2250
	1    0    0    -1  
$EndComp
Connection ~ 9250 2250
Wire Wire Line
	9250 2250 9100 2250
$Comp
L Connector:TestPoint TP5
U 1 1 60671EF8
P 9650 1950
F 0 "TP5" V 9604 2138 50  0000 L CNN
F 1 "." V 9695 2138 50  0000 L CNN
F 2 "" H 9850 1950 50  0001 C CNN
F 3 "~" H 9850 1950 50  0001 C CNN
	1    9650 1950
	0    1    1    0   
$EndComp
Connection ~ 9650 1950
Wire Wire Line
	9650 1950 9650 2050
Wire Wire Line
	7550 950  7550 850 
Wire Wire Line
	7100 850  7550 850 
$EndSCHEMATC
